{
    "photos": {
        "page": 1,
        "pages": 13906,
        "perpage": 25,
        "total": "347644",
        "photo": [
            {
                "id": "45008576281",
                "owner": "98365819@N04",
                "secret": "3308734c6a",
                "server": "1910",
                "farm": 2,
                "title": "Fenton Handpainted Cobalt Blue Basket",
                "ispublic": 1,
                "isfriend": 0,
                "isfamily": 0
            },
            {
                "id": "45008573081",
                "owner": "98365819@N04",
                "secret": "45330c0db5",
                "server": "1941",
                "farm": 2,
                "title": "Fenton Handpainted Cobalt Blue Basket",
                "ispublic": 1,
                "isfriend": 0,
                "isfamily": 0
            },
            {
                "id": "30072184927",
                "owner": "98365819@N04",
                "secret": "ff4f5599dd",
                "server": "1934",
                "farm": 2,
                "title": "Fenton Handpainted Cobalt Blue Basket",
                "ispublic": 1,
                "isfriend": 0,
                "isfamily": 0
            }
        ]
    },
    "stat": "ok"
}
